<?xml version="1.0" encoding="utf-8"?>
<!-- Generator: Adobe Illustrator 23.0.3, SVG Export Plug-In . SVG Version: 6.00 Build 0)  -->
<svg version="1.1" id="Capa_1" xmlns="http://www.w3.org/2000/svg" xmlns:xlink="http://www.w3.org/1999/xlink" x="0px" y="0px"
	 viewBox="0 0 666 800" style="enable-background:new 0 0 666 800;" xml:space="preserve">
<style type="text/css">
	.st0{fill:#D9E100;}
	.st1{fill:#35C12D;}
	.st2{fill:#55C526;}
	.st3{fill:#6CC91C;}
	.st4{fill:#94D100;}
	.st5{fill:#81CD10;}
	.st6{fill:#A7D500;}
	.st7{fill:#C8DD00;}
	.st8{fill:#B7D900;}
	.st9{fill:#00BD34;}
</style>
<g>
	<path class="st0" d="M268.85,255.63h127.86c-0.79-1.58-62.95-125.9-63.93-127.86C331.8,129.73,269.64,254.07,268.85,255.63"/>
	<path class="st1" d="M409.46,536.84h127.87c-0.79-1.57-62.95-125.97-63.92-127.93C472.42,410.88,410.25,535.28,409.46,536.84"/>
	<path class="st2" d="M339.15,404.03c0.8,1.6,62.96,125.98,63.95,127.94c0.98-1.96,63.13-126.34,63.92-127.94H339.15"/>
	<path class="st3" d="M268.84,536.84h127.87c-0.79-1.57-62.98-126.05-63.93-127.93C331.84,410.79,269.65,535.28,268.84,536.84"/>
	<path class="st4" d="M128.24,536.84h127.87c-0.8-1.57-63-126.05-63.94-127.93C191.22,410.79,129.03,535.28,128.24,536.84"/>
	<path class="st5" d="M198.55,404.03c0.79,1.6,62.96,126.06,63.92,127.94c0.96-1.88,63.15-126.34,63.94-127.94H198.55"/>
	<path class="st6" d="M339.15,396.16h127.87c-0.79-1.58-62.94-125.98-63.92-127.94C402.11,270.18,339.95,394.58,339.15,396.16"/>
	<path class="st7" d="M198.55,396.16h127.86c-0.79-1.62-62.98-126.06-63.94-127.94C261.51,270.1,199.34,394.54,198.55,396.16"/>
	<path class="st8" d="M268.84,263.34c0.81,1.59,63,126.06,63.94,127.96c0.95-1.89,63.14-126.36,63.93-127.96H268.84"/>
	<path class="st9" d="M268.84,544.75c0.81,1.57,63,126.06,63.94,127.94c0.95-1.88,63.14-126.37,63.93-127.94H268.84"/>
</g>
</svg>
